<?xml version="1.0" encoding="utf-8"?>
<!-- Generator: Adobe Illustrator 16.0.0, SVG Export Plug-In . SVG Version: 6.00 Build 0)  -->
<!DOCTYPE svg PUBLIC "-//W3C//DTD SVG 1.1//EN" "http://www.w3.org/Graphics/SVG/1.1/DTD/svg11.dtd">
<svg version="1.1" id="Capa_1" xmlns="http://www.w3.org/2000/svg" xmlns:xlink="http://www.w3.org/1999/xlink" x="0px" y="0px"
	 width="233.447px" height="256.997px" viewBox="0 0 233.447 256.997" enable-background="new 0 0 233.447 256.997"
	 xml:space="preserve">
<path fill="#96C93D" d="M230.549,173.221V83.774c0-12.99-6.932-24.994-18.18-31.489L134.904,7.561
	c-11.25-6.496-25.111-6.496-36.361,0L21.079,52.285C9.828,58.78,2.898,70.784,2.898,83.774v89.447
	c0,12.99,6.93,24.997,18.181,31.492l77.464,44.723c11.25,6.495,25.111,6.495,36.361,0l77.465-44.723
	C223.617,198.218,230.549,186.211,230.549,173.221z"/>
<path fill="#F9F9FA" d="M170.904,99.274c-0.145-0.101-2.06-1.43-4.698-2.46c2.524-4.787,1.284-11.365,1.227-11.662
	c-0.198-1.02-1.176-1.695-2.201-1.517c-0.319,0.057-7.869,1.418-11.182,6.227c-0.622,0.904-1.016,1.919-1.166,2.974
	c-2.059-2.448-4.346-4.009-4.505-4.117c-0.862-0.582-2.031-0.366-2.63,0.484c-0.131,0.188-2.554,3.675-3.389,7.793
	c-0.83-0.409-1.854-0.163-2.401,0.615c-0.131,0.187-2.554,3.675-3.389,7.793c-0.83-0.409-1.854-0.163-2.401,0.613
	c-0.131,0.188-2.554,3.675-3.389,7.793c-0.83-0.408-1.854-0.163-2.4,0.615c-0.132,0.187-2.555,3.675-3.39,7.793
	c-0.83-0.408-1.853-0.163-2.4,0.613c-0.187,0.266-4.562,6.566-3.503,12.309c0.189,1.039,1.186,1.725,2.225,1.533
	c1.036-0.192,1.722-1.188,1.531-2.225c-0.467-2.531,0.752-5.638,1.834-7.686c1.738,1.522,3.979,3.983,4.447,6.527
	c0.17,0.914-0.081,1.802-0.634,2.571l-11.66,16.929c-1.315,1.909-2.422,3.929-3.32,6.027c-0.857-4.398-2.263-8.695-4.187-12.725
	l-12.667-26.52c-0.195-0.408-0.785-1.608-1.128-2.418c-0.387-0.914-0.65-1.852-0.32-2.786c0.857-2.426,3.463-4.511,5.422-5.747
	c0.748,2.186,1.461,5.438,0.6,7.875c-0.351,0.995,0.17,2.086,1.165,2.438c0.995,0.351,2.086-0.17,2.437-1.165
	c1.947-5.506-1.386-12.415-1.53-12.706c-0.417-0.854-1.39-1.255-2.274-0.983c-0.179-4.199-2.026-8.026-2.125-8.228
	c-0.418-0.854-1.39-1.257-2.274-0.984c-0.179-4.197-2.026-8.025-2.125-8.227c-0.417-0.855-1.39-1.256-2.274-0.984
	c-0.179-4.197-2.026-8.026-2.125-8.228c-0.417-0.854-1.39-1.255-2.274-0.983c-0.179-4.197-2.026-8.026-2.125-8.228
	c-0.458-0.935-1.578-1.329-2.521-0.891c-0.159,0.074-2.267,1.072-4.475,2.843c-2.891-4.572-9.21-6.78-9.496-6.879
	c-0.984-0.336-2.057,0.177-2.413,1.153c-0.111,0.306-2.696,7.527-0.18,12.796c0.482,1.01,1.178,1.848,2.004,2.493
	c-3.153,0.563-5.65,1.768-5.823,1.852c-0.934,0.459-1.33,1.58-0.891,2.522c0.097,0.207,1.911,4.046,5.063,6.823
	c-0.767,0.516-1.065,1.526-0.665,2.388c0.096,0.208,1.912,4.046,5.064,6.823c-0.767,0.518-1.065,1.526-0.665,2.388
	c0.097,0.208,1.911,4.047,5.064,6.823c-0.768,0.518-1.066,1.525-0.665,2.387c0.097,0.208,1.911,4.048,5.064,6.825
	c-0.768,0.516-1.066,1.524-0.665,2.388c0.137,0.294,3.416,7.228,8.921,9.176c0.77,0.271,1.557,0.399,2.331,0.399
	c2.177,0,4.252-1.021,5.579-2.755l9.536,19.964c3.105,6.502,4.763,13.747,4.796,20.951l0.058,22.987c0,1.055,0.855,1.91,1.91,1.91
	c1.055,0,1.91-0.855,1.91-1.91v-19.277c0-6.259,1.877-12.29,5.428-17.445l10.555-15.326c0.521,0.966,1.265,1.803,2.195,2.442
	c1.183,0.815,2.558,1.24,3.964,1.24c0.427,0,0.856-0.04,1.285-0.119c5.743-1.059,10.069-7.393,10.251-7.662
	c0.531-0.788,0.395-1.831-0.282-2.461c3.55-2.25,5.946-5.76,6.072-5.946c0.531-0.788,0.395-1.83-0.282-2.461
	c3.55-2.249,5.946-5.758,6.072-5.945c0.53-0.788,0.395-1.831-0.282-2.461c3.55-2.25,5.946-5.76,6.072-5.946
	c0.531-0.788,0.395-1.83-0.282-2.461c3.549-2.248,5.945-5.758,6.072-5.944C171.97,101.042,171.755,99.873,170.904,99.274
	L170.904,99.274z M91.824,90.205c0.625,1.806,1.331,4.607,0.837,7.023c-1.083,0.798-2.247,1.796-3.254,2.976
	c-0.355,0-0.708-0.059-1.05-0.182c-0.805-0.284-1.45-0.864-1.818-1.633c-0.367-0.771-0.414-1.638-0.128-2.441
	C87.266,93.524,89.866,91.441,91.824,90.205L91.824,90.205z M87.425,80.994c0.624,1.806,1.332,4.607,0.837,7.023
	c-1.084,0.798-2.247,1.796-3.255,2.976c-0.355-0.002-0.707-0.061-1.051-0.182c-1.66-0.586-2.533-2.415-1.946-4.076
	C82.866,84.314,85.467,82.229,87.425,80.994z M77.611,77.524c0.856-2.422,3.457-4.506,5.415-5.741
	c0.624,1.807,1.331,4.607,0.837,7.022c-1.084,0.799-2.247,1.797-3.255,2.977c-0.354-0.001-0.707-0.061-1.05-0.182
	c-0.805-0.284-1.45-0.865-1.818-1.635C77.372,79.196,77.326,78.329,77.611,77.524z M69.838,67.7c2.059,1.008,4.92,2.943,6.054,5.254
	c-0.787,0.984-1.456,2.087-1.884,3.296c-0.124,0.353-0.218,0.709-0.286,1.069c-1.441,0.361-2.99-0.33-3.655-1.722
	C68.959,73.275,69.327,69.958,69.838,67.7z M66.363,84.262c2.186-0.75,5.436-1.462,7.873-0.6c1.66,0.586,2.534,2.414,1.946,4.076
	c-0.122,0.342-0.296,0.653-0.519,0.931c-1.552,0.042-3.059,0.319-4.362,0.66C69.111,88.198,67.375,85.881,66.363,84.262z
	 M70.762,93.473c2.186-0.748,5.435-1.462,7.872-0.6c1.661,0.586,2.534,2.417,1.946,4.076c-0.121,0.343-0.296,0.654-0.519,0.931
	c-1.552,0.042-3.058,0.319-4.362,0.66C73.51,97.409,71.775,95.092,70.762,93.473z M75.161,102.683c2.187-0.748,5.436-1.46,7.873-0.6
	c1.66,0.588,2.534,2.416,1.946,4.076c-0.121,0.343-0.296,0.654-0.519,0.931c-1.552,0.042-3.059,0.319-4.362,0.661
	C77.909,106.62,76.174,104.305,75.161,102.683z M79.561,111.894c2.187-0.748,5.436-1.46,7.873-0.598
	c0.804,0.284,1.449,0.864,1.817,1.633c0.367,0.771,0.413,1.638,0.128,2.441c-0.121,0.343-0.296,0.653-0.519,0.931
	c-1.552,0.042-3.059,0.321-4.362,0.662C82.309,115.831,80.573,113.516,79.561,111.894z M93.778,124.581
	c-0.586,1.662-2.415,2.534-4.075,1.948c-2.425-0.857-4.511-3.463-5.746-5.422c2.186-0.748,5.438-1.461,7.875-0.6
	C93.493,121.093,94.366,122.921,93.778,124.581z M93.806,109.414c-0.355,0-0.708-0.059-1.051-0.18
	c-1.661-0.588-2.534-2.416-1.947-4.076c0.857-2.424,3.461-4.51,5.42-5.745c0.66,1.931,1.302,4.72,0.832,7.025
	C95.976,107.238,94.814,108.235,93.806,109.414z M157.196,92.029c1.459-2.117,4.513-3.453,6.726-4.137
	c0.151,2.312-0.073,5.748-1.53,7.865c-1.245-0.19-2.535-0.22-3.797,0.013c-0.366,0.067-0.723,0.163-1.069,0.284
	c-0.432-0.447-0.724-1.01-0.84-1.637C156.531,93.58,156.713,92.731,157.196,92.029L157.196,92.029z M147.836,93.142
	c1.741,1.529,3.982,3.994,4.447,6.521c0.319,1.732-0.83,3.4-2.561,3.72c-0.357,0.065-0.716,0.069-1.066,0.015
	c-0.811-1.326-1.802-2.492-2.747-3.451C145.798,97.485,146.938,94.829,147.836,93.142L147.836,93.142z M142.046,101.549
	c1.741,1.527,3.982,3.994,4.447,6.521c0.155,0.839-0.024,1.687-0.509,2.39c-0.483,0.702-1.213,1.174-2.052,1.329
	c-0.357,0.067-0.714,0.069-1.063,0.015c-0.171-0.28-0.351-0.561-0.548-0.842c-0.687-0.981-1.458-1.86-2.202-2.612
	C140.008,105.889,141.147,103.234,142.046,101.549L142.046,101.549z M136.255,109.958c0.902,0.787,2.027,1.896,2.937,3.194
	c0.812,1.156,1.319,2.275,1.513,3.323c0.154,0.838-0.025,1.688-0.51,2.391c-0.483,0.703-1.213,1.175-2.052,1.329
	c-0.357,0.066-0.715,0.069-1.066,0.014c-0.81-1.324-1.801-2.49-2.747-3.45C134.218,114.3,135.355,111.646,136.255,109.958
	L136.255,109.958z M132.354,128.602c-0.36,0.067-0.716,0.069-1.067,0.015c-0.81-1.324-1.803-2.492-2.747-3.451
	c-0.112-2.463,1.03-5.121,1.929-6.808c1.739,1.522,3.978,3.984,4.446,6.524c0.154,0.84-0.025,1.689-0.51,2.391
	C133.921,127.975,133.191,128.447,132.354,128.602L132.354,128.602z M137.286,139.436c-0.84,0.154-1.688-0.025-2.391-0.51
	c-0.702-0.483-1.175-1.213-1.329-2.051c-0.319-1.732,0.83-3.401,2.561-3.72c2.528-0.468,5.634,0.749,7.682,1.831
	C142.279,136.727,139.813,138.97,137.286,139.436z M143.925,130.806c-1.233-0.543-2.677-1.052-4.202-1.337
	c-0.177-0.307-0.301-0.642-0.366-1.001c-0.155-0.839,0.024-1.687,0.509-2.39c0.484-0.704,1.213-1.176,2.052-1.331
	c2.526-0.465,5.63,0.75,7.679,1.83C148.34,128.019,146.265,130.03,143.925,130.806L143.925,130.806z M149.716,122.399
	c-1.234-0.541-2.678-1.052-4.203-1.336c-0.177-0.309-0.301-0.644-0.366-1.001c-0.155-0.84,0.024-1.688,0.509-2.391
	c0.483-0.702,1.213-1.174,2.052-1.329c2.528-0.467,5.63,0.749,7.678,1.83C154.13,119.613,152.055,121.623,149.716,122.399
	L149.716,122.399z M155.505,113.993c-1.233-0.541-2.677-1.052-4.202-1.337c-0.177-0.309-0.301-0.644-0.367-1.001
	c-0.154-0.838,0.025-1.687,0.51-2.391c0.483-0.703,1.213-1.175,2.052-1.329c2.528-0.465,5.63,0.749,7.678,1.831
	C159.92,111.205,157.845,113.216,155.505,113.993L155.505,113.993z M161.294,105.585c-1.232-0.541-2.676-1.05-4.202-1.335
	c-0.176-0.31-0.301-0.644-0.366-1.001c-0.156-0.84,0.025-1.689,0.51-2.391c0.483-0.702,1.213-1.174,2.051-1.329
	c2.529-0.467,5.636,0.751,7.684,1.833C165.626,102.895,163.529,104.842,161.294,105.585L161.294,105.585z"/>
</svg>
